{
	"$schema": "https://raw.githubusercontent.com/martinring/tmlanguage/master/tmlanguage.json",
	"name": "Silver",
	"patterns": [
		{
			"include": "#keywords"
		},
		{
			"include": "#strings"
		},
		{
			"include": "#types"
		}
	],
	"repository": {
		"keywords": {
			"patterns": [{
				"name": "keyword.control.ag",
				"match": "\\b(def|ref|if|while|for|return)\\b"
			}]
		},
		"types": {
			"patterns": [{
				"name": "variable.constant.ag",
				"match": "\\b(int|str|float)\\b"
			}]
		},
		"strings": {
			"name": "string.quoted.double.ag",
			"begin": "\"",
			"end": "\"",
			"patterns": [
				{
					"name": "constant.character.escape.ag",
					"match": "\\\\."
				}
			]
		}
	},
	"scopeName": "source.ag"
}